<?xml version="1.0" encoding="UTF-8" standalone="no"?>
<!-- Created with Inkscape (http://www.inkscape.org/) -->

<svg
   xmlns:dc="http://purl.org/dc/elements/1.1/"
   xmlns:cc="http://creativecommons.org/ns#"
   xmlns:rdf="http://www.w3.org/1999/02/22-rdf-syntax-ns#"
   xmlns:svg="http://www.w3.org/2000/svg"
   xmlns="http://www.w3.org/2000/svg"
   xmlns:sodipodi="http://sodipodi.sourceforge.net/DTD/sodipodi-0.dtd"
   xmlns:inkscape="http://www.inkscape.org/namespaces/inkscape"
   width="16"
   height="16"
   id="svg4992"
   version="1.1"
   inkscape:version="0.91 r13725"
   viewBox="0 0 16 16"
   sodipodi:docname="logoForTest.svg">
  <defs
     id="defs4994" />
  <sodipodi:namedview
     id="base"
     pagecolor="#ffffff"
     bordercolor="#666666"
     borderopacity="1.0"
     inkscape:pageopacity="0.0"
     inkscape:pageshadow="2"
     inkscape:zoom="32"
     inkscape:cx="-2.2586338"
     inkscape:cy="6.7756382"
     inkscape:current-layer="g4280"
     showgrid="true"
     inkscape:grid-bbox="true"
     inkscape:document-units="px"
     inkscape:window-width="3200"
     inkscape:window-height="1752"
     inkscape:window-x="0"
     inkscape:window-y="48"
     inkscape:window-maximized="1" />
  <metadata
     id="metadata4997">
    <rdf:RDF>
      <cc:Work
         rdf:about="">
        <dc:format>image/svg+xml</dc:format>
        <dc:type
           rdf:resource="http://purl.org/dc/dcmitype/StillImage" />
        <dc:title />
      </cc:Work>
    </rdf:RDF>
  </metadata>
  <g
     id="layer1"
     inkscape:label="Layer 1"
     inkscape:groupmode="layer">
    <g
       transform="matrix(0.13804824,0,0,0.13804824,-4.8105362,-7.2892299)"
       id="g4280">
      <path
         sodipodi:nodetypes="cccscsccc"
         inkscape:connector-curvature="0"
         id="path4138"
         d="M 83.896009,83.943135 C 55.881264,110.99185 52.66118,123.55018 52.66118,123.55018 l 23.506621,-7.40619 c 0,0 -8.586581,22.92429 -13.428821,48.3195 -0.378722,1.98623 27.75888,-19.90328 28.887226,-20.78064 1.128346,0.92203 31.608604,23.28647 31.229884,21.30023 -4.84224,-25.3952 -13.42882,-48.31949 -13.42882,-48.31949 l 23.50662,7.40619 c 0,0 -3.22008,-12.55833 -31.23483,-39.607048"
         style="fill:#ffffff;fill-opacity:1;fill-rule:evenodd;stroke:#000000;stroke-width:5.79448938;stroke-linecap:butt;stroke-linejoin:round;stroke-miterlimit:4;stroke-dasharray:none;stroke-opacity:1" />
      <circle
         r="20.981144"
         cy="78.565865"
         cx="92.797531"
         id="path4136"
         style="opacity:1;fill:#000000;fill-opacity:1;fill-rule:evenodd;stroke:#000000;stroke-width:3.39009333;stroke-linecap:round;stroke-linejoin:round;stroke-miterlimit:4;stroke-dasharray:none;stroke-dashoffset:7;stroke-opacity:1" />
    </g>
  </g>
</svg>
